{
  "DataProvider": "sqlserver",
  "DataConnectionString": "Data Source=18.117.227.113,1433;Initial Catalog=mydatabase;Integrated Security=False;Persist Security Info=False;User ID=SA;Password=Samee@123",
  "RawDataSettings": {}
}
